{
  "project_info": {
    "project_number": "6799529051",
    "firebase_url": "https://asiapacificgroup-668d6.firebaseio.com",
    "project_id": "asiapacificgroup-668d6",
    "storage_bucket": "asiapacificgroup-668d6.appspot.com"
  },
  "client": [
    {
      "client_info": {
        "mobilesdk_app_id": "1:6799529051:android:1028ca31ea3b3dfb",
        "android_client_info": {
          "package_name": "com.asiapacificgroup"
        }
      },
      "oauth_client": [
        {
          "client_id": "6799529051-n1v5rbcaad6197fg8trbgm2ap3djijm2.apps.googleusercontent.com",
          "client_type": 3
        }
      ],
      "api_key": [
        {
          "current_key": "AIzaSyD-Bk92kY6WVp6VgqY2dcP3kNpJttaXO5s"
        }
      ],
      "services": {
        "analytics_service": {
          "status": 1
        },
        "appinvite_service": {
          "status": 1,
          "other_platform_oauth_client": []
        },
        "ads_service": {
          "status": 2
        }
      }
    }
  ],
  "configuration_version": "1"
}